…
ctpop <- gt::countrypops
ctpop <- ctpop[ctpop$year == 2020, ]
ctpop_link <- enrich(ctpop, id_col = "country_code_2")
#> • Detected iso2c codes, converting to iso3c.
#> • No geolinker specified, using "naturalearth".
ctpop_link
#> Simple feature collection with 215 features and 5 fields (with 26 geometries empty)
#> Geometry type: GEOMETRY
#> Dimension:     XY
#> Bounding box:  xmin: -5155245 ymin: -5472681 xmax: 16683810 ymax: 15313100
#> Projected CRS: ETRS89-extended / LAEA Europe
#> # A tibble: 215 × 6
#>    country_name         country_code_2 country_code_3  year population
#>  * <chr>                <chr>          <chr>          <int>      <int>
#>  1 Aruba                AW             ABW             2020     106585
#>  2 Afghanistan          AF             AFG             2020   38972230
#>  3 Angola               AO             AGO             2020   33428486
#>  4 Albania              AL             ALB             2020    2837849
#>  5 Andorra              AD             AND             2020      77700
#>  6 United Arab Emirates AE             ARE             2020    9287289
#>  7 Argentina            AR             ARG             2020   45376763
#>  8 Armenia              AM             ARM             2020    2805608
#>  9 American Samoa       AS             ASM             2020      46189
#> 10 Antigua & Barbuda    AG             ATG             2020      92664
#> # ℹ 205 more rows
#> # ℹ 1 more variable: geometry <GEOMETRY [m]>
```
…
``` r
ctpop_link <- enrich(ctpop, id_col = "country_code_2", linker = "geoboundaries")
#> • Detected iso2c codes, converting to iso3c.
ctpop_link
#> Simple feature collection with 215 features and 5 fields (with 12 geometries empty)
#> Geometry type: GEOMETRY
#> Dimension:     XY
#> Bounding box:  xmin: -7143855 ymin: -5469869 xmax: 16798790 ymax: 15341140
#> Projected CRS: ETRS89-extended / LAEA Europe
#> # A tibble: 215 × 6
#>    country_name         country_code_2 country_code_3  year population
#>  * <chr>                <chr>          <chr>          <int>      <int>
#>  1 Aruba                AW             ABW             2020     106585
#>  2 Afghanistan          AF             AFG             2020   38972230
#>  3 Angola               AO             AGO             2020   33428486
#>  4 Albania              AL             ALB             2020    2837849
#>  5 Andorra              AD             AND             2020      77700
#>  6 United Arab Emirates AE             ARE             2020    9287289
#>  7 Argentina            AR             ARG             2020   45376763
#>  8 Armenia              AM             ARM             2020    2805608
#>  9 American Samoa       AS             ASM             2020      46189
#> 10 Antigua & Barbuda    AG             ATG             2020      92664
#> # ℹ 205 more rows
#> # ℹ 1 more variable: geometry <MULTIPOLYGON [m]>
```
…
